Homework 10
…
## [1] "The most amount of shark attacks happen at 10:45"

How do the number and types of injuries compare by county? Make a
table that shows the number of injury types by county. Which county has
the highest number incidents? (hint: your table should be in wide
format)

sharks %>% 
  group_by(county) %>% 
  count(injury) %>% 
  pivot_wider(names_from = injury, values_from = n) %>% 
  summarize(across(where(is.numeric), ~sum(.x, na.rm = T)))

## # A tibble: 22 × 8
##    county                 minor  none major `minor*` `none*` fatal `major*`
##    <chr>                  <int> <int> <int>    <int>   <int> <int>    <int>
##  1 Del Norte                  2     1     0        0       0     0        0
##  2 Humboldt                   2     9     7        1       1     0        0
##  3 Island - Catalina          1     3     0        0       0     0        0
##  4 Island - Farallones        0     0     7        0       0     0        0
##  5 Island - San Miguel        2     0     2        0       0     1        0
##  6 Island - San Nicolas       1     0     0        0       0     0        0
##  7 Island - Santa Barbara     0     0     0        0       0     0        1
##  8 Island - Santa Cruz        1     1     0        0       0     0        0
##  9 Island - Santa Rosa        0     0     1        0       0     0        0
## 10 Los Angeles                6     2     0        0       0     1        1
## # ℹ 12 more rows
…
